tid,temp
0,"-0,100425683769681"
1,"0,276799062612216"
2,"0,469137782559284"
3,"0,851848292774106"
4,"1,12359487650234"
5,"1,49361243719303"
6,"1,75807118380334"
7,"2,11095727153662"
8,"2,48324994667476"
9,"2,65509557513923"
10,"2,90624509595504"
11,"3,28342649295085"
12,"3,6598293800405"
13,"3,76617555662166"
14,"4,24679191572052"
15,"4,42840587262779"
16,"4,68896675577816"
17,"5,08623243381537"
18,"5,33636893871808"
19,"5,55929283793954"
20,"6,00416261249086"
21,"6,23657156256102"
22,"6,67403594271884"
23,"6,80030542287923"
24,"7,17652037556018"
25,"7,57887541925828"
26,"7,70657764749395"
27,"7,97123442395371"
28,"8,45640164852351"
29,"8,62243755089886"
30,"8,95481705848047"
31,"9,41409060525515"
32,"9,49621378210688"
33,"9,85588703597511"
34,"10,1336256853546"
35,"10,6304110132842"
36,"10,6771627790347"
37,"11,165477966144"
38,"11,3108628882942"
39,"11,8494035606882"
40,"12,126203078168"
41,"12,1649986129615"
42,"12,6409836627823"
43,"12,789360376126"
44,"13,2054885394127"
45,"13,6178104487379"
46,"13,654770248001"
47,"14,087892042755"
48,"14,3712950141462"
49,"14,6945774973372"
50,"15,0221903785974"
51,"15,4332241762773"
52,"15,5043337288536"
53,"15,7779074507172"
54,"16,1985403330807"
55,"16,4470804800042"
56,"16,7871825276277"
57,"17,1026663895257"
58,"17,3039777906001"
59,"17,6523399256475"
60,"18,0342802342679"
61,"18,1929500237217"
62,"18,4660463570869"
63,"19,0483564968269"
64,"19,1340832748047"
65,"19,5641762819958"
66,"19,8733455086299"
67,"20,1958736152952"
68,"20,2859032162462"
69,"20,8241714385664"
70,"20,8847454089847"
71,"21,1957309633617"
72,"21,539102991268"
73,"21,762742031414"
74,"22,1884181362362"
75,"22,4785682906458"
76,"22,6946637228372"
77,"22,9593582965782"
78,"23,3681581393009"
79,"23,8168967954804"
80,"23,8549221518637"
81,"24,287030795088"
82,"24,635306501755"
83,"24,9363885046162"
84,"25,2064323406986"
85,"25,5013196961845"
86,"25,8703921008937"
87,"25,9662914981895"
88,"26,3752018148555"
89,"26,6783462242113"
90,"26,8688415803848"
91,"27,3698357875301"
92,"27,6379642311098"
93,"27,965731005444"
94,"28,0654986154739"
95,"28,454669435355"
96,"28,9366399779322"
97,"29,1320473292277"
98,"29,3012803489874"
99,"29,6588088001601"
100,"30,1415306119057"
